{
  "htmlElements": {
    "tags": [
      "a",
      "abbr",
      "aside",
      "blockquote",
      "body",
      "br",
      "button",
      "circle",
      "code",
      "div",
      "em",
      "footer",
      "h1",
      "h2",
      "h3",
      "h4",
      "h5",
      "h6",
      "head",
      "hr",
      "html",
      "i",
      "iframe",
      "img",
      "kbd",
      "li",
      "link",
      "mark",
      "meta",
      "nav",
      "noscript",
      "ol",
      "p",
      "path",
      "pre",
      "script",
      "section",
      "span",
      "strong",
      "style",
      "sub",
      "sup",
      "svg",
      "table",
      "tbody",
      "td",
      "th",
      "thead",
      "time",
      "title",
      "tr",
      "ul"
    ],
    "classes": [
      "__h_video",
      "absolute",
      "active",
      "align-middle",
      "bg-blue-600",
      "bg-gray-100",
      "bg-gray-200",
      "bg-gray-800",
      "bg-white",
      "block",
      "border",
      "border-0",
      "border-blue-600",
      "border-gray-600",
      "border-white",
      "bottom-0",
      "col-span-1",
      "col-span-3",
      "container",
      "content",
      "content-center",
      "dark",
      "dark:bg-warmgray-800",
      "dark:bg-warmgray-900",
      "dark:border-gray-600",
      "dark:hover:bg-warmgray-700",
      "dark:hover:bg-warmgray-800",
      "dark:text-gray-200",
      "dark:text-gray-300",
      "dark:text-gray-400",
      "dark:text-white",
      "duration-100",
      "duration-200",
      "duration-300",
      "duration-500",
      "flex",
      "flex-col",
      "flex-grow",
      "flex-no-shrink",
      "flex-wrap",
      "focus:outline-none",
      "font-bold",
      "font-sans",
      "font-semibold",
      "footnote-backref",
      "footnote-ref",
      "footnotes",
      "gap-4",
      "grid",
      "grid-cols-2",
      "grid-cols-3",
      "h-8",
      "h-auto",
      "hidden",
      "highlight",
      "hover:-translate-y-1",
      "hover:bg-gray-100",
      "hover:bg-gray-400",
      "hover:border-black",
      "hover:border-blue-700",
      "hover:opacity-50",
      "hover:shadow-md",
      "hover:text-black",
      "hover:text-blue-700",
      "hover:text-blue-900",
      "icon-access_time",
      "icon-folder",
      "icon-keyboard_arrow_left",
      "icon-keyboard_arrow_right",
      "icon-local_offer",
      "icon-menu",
      "icon-moon",
      "inline-flex",
      "invisible",
      "items-center",
      "justify-between",
      "justify-center",
      "leading-4",
      "leading-normal",
      "lg:block",
      "lg:col-span-1",
      "lg:col-span-2",
      "lg:flex",
      "lg:flex-grow",
      "lg:h-44",
      "lg:max-w-full",
      "lg:mx-5",
      "lg:px-0",
      "lg:py-1",
      "lg:text-2xl",
      "lg:w-auto",
      "list-none",
      "m-3",
      "max-w-full",
      "max-w-screen-xl",
      "mb-2",
      "mb-3",
      "md:flex",
      "md:flex-row",
      "md:hidden",
      "md:visible",
      "md:w-auto",
      "min-h-screen",
      "ml-2",
      "ml-auto",
      "mr-1",
      "mr-2",
      "mr-4",
      "mr-6",
      "mr-auto",
      "mt-3",
      "mt-4",
      "mt-5",
      "mx-2",
      "mx-4",
      "mx-6",
      "mx-auto",
      "my-2",
      "my-4",
      "my-5",
      "navmenu",
      "next",
      "no-underline",
      "p-0",
      "p-2",
      "p-3",
      "p-5",
      "p-6",
      "page-item",
      "panel",
      "panel-block",
      "pb-1",
      "pb-5",
      "pl-3",
      "pl-4",
      "play",
      "previous",
      "px-2",
      "px-3",
      "px-4",
      "px-5",
      "py-1",
      "py-2",
      "py-3",
      "py-4",
      "py-5",
      "relative",
      "right-0",
      "rounded-full",
      "s_video_simple",
      "sm:inline-block",
      "sm:items-center",
      "sm:mt-0",
      "text-2xl",
      "text-4xl",
      "text-base",
      "text-blue-500",
      "text-blue-600",
      "text-center",
      "text-gray-600",
      "text-gray-700",
      "text-gray-800",
      "text-gray-900",
      "text-lg",
      "text-sm",
      "text-white",
      "text-xl",
      "title",
      "tracking-tight",
      "transform",
      "transition-colors",
      "twitter-tweet",
      "w-full"
    ],
    "ids": [
      "blockquote-with-attribution",
      "blockquote-without-attribution",
      "blockquotes",
      "categories",
      "code-block-indented-with-four-spaces",
      "code-block-with-backticks",
      "code-block-with-hugos-internal-highlight-shortcode",
      "code-blocks",
      "content",
      "date",
      "disqus_thread",
      "examples",
      "fn:1",
      "fnref:1",
      "h1",
      "h2",
      "h3",
      "h4",
      "h5",
      "h6",
      "hamburgerbtn",
      "headings",
      "icon",
      "icon2",
      "inline-markdown-within-tables",
      "list-types",
      "mane-refeci-capiebant-unda-mulcebat",
      "meta",
      "mobileMenu",
      "nested-list",
      "ordered-list",
      "other-elements--abbr-sub-sup-kbd-mark",
      "paragraph",
      "tables",
      "tags",
      "thumb",
      "twitter-simple-shortcode",
      "unordered-list",
      "vagus-elidunt",
      "vimeo-simple-shortcode",
      "youtube-privacy-enhanced-shortcode"
    ]
  }
}